sku,store_view_code,attribute_set_code,product_type,categories,product_websites,name,short_description,visibility,price,url_key,meta_title,qty
11899,en,Default,simple,Medicines/Analgesic & Antipyretic,base,DICLO 75 ID TABLETS 20 TAB,Diclo 75 LD,"Catalog, Search",1.77,DICLO-75-ID-TABLETS-20-TAB,DICLO 75 ID TABLETS 20 TAB,50
97168,en,Default,simple,Medicines/Analgesic & Antipyretic,base,Airtal 100 mg  tablets 40,Airtal 100 mg ,"Catalog, Search",2.8,Airtal-100-mg-tablets-40,Airtal 100 mg  tablets 40,50
26588,en,Default,simple,Medicines/Analgesic & Antipyretic,base,Panadol-Extra Tablet 48 pcs,panadol,"Catalog, Search",1.2,Panadol-Extra-Tablet-48-pcs,Panadol-Extra Tablet 48 pcs,50
18541,en,Default,simple,Medicines/Analgesic & Antipyretic,base,Voltfast 50mg Powder 30's,voltfast ,"Catalog, Search",5.04,Voltfast-50mg-Powder-30's,Voltfast 50mg Powder 30's,50
11972,en,Default,simple,Medicines/Analgesic & Antipyretic,base,Divido 75 mg Capsule 20pcs,divido,"Catalog, Search",1.6,Divido-75-mg-Capsule-20pcs,Divido 75 mg Capsule 20pcs,50
24155,en,Default,simple,Medicines/Analgesic & Antipyretic,base,Panadol Cold+Flu All In One 24 tablet,panadol cold +FLU all in one,"Catalog, Search",1.11,Panadol-Cold-Flu-All-In-One-24-tablet,Panadol Cold+Flu All In One 24 tablet,50
971683,en,Default,simple,Medicines/Analgesic & Antipyretic,base,Panadol-Cold&Flu-Day Caplet 24pcs,panadol cold +flu day,"Catalog, Search",0.96,Panadol-Cold-Flu-Day-Caplet-24pcs,Panadol-Cold&Flu-Day Caplet 24pcs,50
