"sku","store_view_code","attribute_set_code","name","short_description"
"11899","ar","Default","ديكلو اي دي 75 مجم و 150 أقراص ممتدة الإفراز","ديكلو أي دي"
"97168","ar","Default","اير تال 100 ملجم 40 قرص","اير تال"
"26588","ar","Default","بنادول اكسترا 48 قرص","بنادول"
"18541","ar","Default","فولتفاست 50 ملجم 30 كيس","فولتفاست"
"11972","ar","Default","ديفيدو75 مجم 20 كبسولة","ديفيدو"
"24155","ar","Default","بنادول كولد + فلو الكل في واحد   24 كبسولة","بنادول كولد + فلو الكل في واحد"
"971683","ar","Default","بنادول كولد اند فلو داى 24 قرص","بنادول كولد + فلو داى"
