sku,store_view_code,attribute_set_code,product_type,categories,product_websites,name,short_description,visibility,price,meta_title,qty,product_online
13614,en,Default,simple,"Default Category/Medicines,Default Category/Medicines/Analgesic & Antipyretic",base,Panadol-Cold&Flu Caplet 24pcs ,Panadol Cold + flu ,"Catalog, Search",,Panadol Cold + flu ,50,1
11405,en,Default,simple,"Default Category/Medicines,Default Category/Medicines/Analgesic & Antipyretic",base,Celebrex 200mg Capsule 30,Celebrex,"Catalog, Search",,Celebrex,50,1
15181,en,Default,simple,"Default Category/Medicines,Default Category/Medicines/Analgesic & Antipyretic",base,Voltaren-Retard 100 mg Tablet 10pcs,Voltaren ,"Catalog, Search",,Voltaren ,50,1
10404,en,Default,simple,"Default Category/Medicines,Default Category/Medicines/Analgesic & Antipyretic",base,ketesse 25 mg 20 film coated tablets dexketoprofen,Ketesse,"Catalog, Search",,Ketesse,50,1
11215,en,Default,simple,"Default Category/Medicines,Default Category/Medicines/Analgesic & Antipyretic",base,Brufen 400 mg Tablet 30 pcs ,brufen ,"Catalog, Search",,brufen ,50,1
11907,en,Default,simple,"Default Category/Medicines,Default Category/Medicines/Analgesic & Antipyretic",base,Diclogesic-Retard 100 mg Tablet 10pcs,Diclogesic,"Catalog, Search",,Diclogesic,50,1
11212,en,Default,simple,"Default Category/Medicines,Default Category/Medicines/Analgesic & Antipyretic",base,BRUFEN 800MG RETARD 20 TABLETS,Brufen 800 mg,"Catalog, Search",,Brufen 800 mg,50,1
13477,en,Default,simple,"Default Category/Medicines,Default Category/Medicines/Analgesic & Antipyretic",base,Olfen 50 mg Tablet 20pcs,olfen,"Catalog, Search",,olfen,50,1
11897,en,Default,simple,"Default Category/Medicines,Default Category/Medicines/Analgesic & Antipyretic",base,diclo 150 mg ID tablets 10 pcs,diclo 150,"Catalog, Search",,diclo 150,50,1
13475,en,Default,simple,"Default Category/Medicines,Default Category/Medicines/Analgesic & Antipyretic",base,Olfen-Sr 100 mg Capsule 10pcs,olfen ,"Catalog, Search",,olfen ,50,1
14016,en,Default,simple,"Default Category/Medicines,Default Category/Medicines/Analgesic & Antipyretic",base,Rapidus Tablets 50mg ,rapidus 50,"Catalog, Search",,rapidus 50,50,1
