sku,store_view_code,attribute_set_code,product_type,categories,product_websites,name,description,short_description,visibility,price,url_key,meta_title,qty,errors
18541,en,Default,simple,"Medicines/Analgesic & Antipyretic",base,"Voltfast 50mg Powder 30's","Indications 
Short-term treatment in post-traumatic & post-operation pain & inflammation; dysmenorrhoea, migraine attack, adnexitis & non-articular rheumatism; as an adjuvant in severe infections of the ENT.Side  effects 
Occasional: GI disorders; headache; dizziness; vertigo; rashes; elevation of serum transaminases. Rare: Gastric or intestinal ulcer; GI bleeding; abnormalities of renal function; hepatitis; hypersensitivity reactions. In isolated cases: Pancreatitis
Contra indications
Hypersensitivity to aspirin or NSAIDs. Gastric or intestinal ulcer  



","voltfast ","Catalog, Search",5.04,Voltfast-50mg-Powder-30's,"Voltfast 50mg Powder 30's",50,
11972,en,Default,simple,"Medicines/Analgesic & Antipyretic",base,"Divido 75 mg Capsule 20pcs","What is Divido ?
(diclofenac) is a nonsteroidal antiinflammatory drug (NSAID). Diclofenac works by reducing substances in the body that cause pain and inflammation.
Uses 
Diclofenac is used to relieve pain, swelling (inflammation), and joint stiffness caused by arthritis. Reducing these symptoms helps you do more of your normal daily activities. This medication is known as a nonsteroidal antiinflammatory drug (NSAlD).lf you are treating a chronic condition such as arthritis, ask your doctor about non-drug treatments and/or using other medications to treat your pain.
Dose for oral  dministration.
It is recommended that the tablets be taken with fluid, preferably with or after food.
Adults
The recommended daily dose is 100-150mg in two or three divided doses. For milder cases, 75-100 mg daily in two or three divided doses is usually sufficient.
In migraine an initial dose of 50 mg should be taken at the first signs of an impending attack. In cases where relief 2 hours after the first dose is not sufficient, a further dose of 50 mg may be taken. If needed, further doses of 50 mg may be taken at intervals of 4-6 hours, not exceeding a total dose of 200 mg per day.
",divido,"Catalog, Search",1.6,Divido-75-mg-Capsule-20pcs,"Divido 75 mg Capsule 20pcs",50,
24155,en,Default,simple,"Medicines/Analgesic & Antipyretic",base,"Panadol Cold+Flu All In One 24 tablet","Indications 
""New generation of Panadol Tablets which is all in one and it is for fast effective relief from:  Chesty Cough.  Sore Throat.  Blocked & Runny nose.  Headache & Body aches.  Fever. ""                                                             Ingredient
24 Tablets


","panadol cold +FLU all in one","Catalog, Search",1.11,Panadol-Cold-Flu-All-In-One-24-tablet,"Panadol Cold+Flu All In One 24 tablet",50,
971683,en,Default,simple,"Medicines/Analgesic & Antipyretic",base,"Panadol-Cold&Flu-Day Caplet 24pcs","Paracetamol 500 mg/Caffeine 25 mg/Phenylephrine Hydrochloride 5 mg Caplets
 
What is Paracetamol/Caffeine/Phenylephrine hydrochloride used for

Paracetamol is a medication that belongs to a class of medications known as analgesics (pain relievers) and antipyretics (fever reducers). Caffeine increases the absorption of paracetamol and enhances its analgesic effect. Phenylephrine hydrochloride is a medication that belongs to a class of medicines known as decongestants and acts by decreasing nasal stuffiness that you may experience during cold and flu.

This combination is non-drowsy and is used for the daytime relief of the following indications:

 Blocked and runny nose 
 Headache
 Body aches
 Sinus and pain relief
 Fever

Do not take Paracetamol/Caffeine/Phenylephrine hydrochloride

 If you are allergic to Paracetamol, or Caffeine, or Phenylephrine hydrochloride or any of the ingredients in this medicine. Tell your doctor about the allergy and what signs you had. 
 If you are taking other paracetamol containing products or other cold and flu medications or decongestants. Make sure not to exceed the dose. 
 If you have an enlarged prostate, blood vessel problems like Raynauds disease (a disorder that causes decreased blood flow to your fingers), glutathione depletion (e.g. sepsis), high blood pressure, liver or kidney problems, heart or blood circulation problems, diabetes (high blood glucose levels), overactive thyroid, pheochromocytoma (a tumor on your adrenal glands of your kidneys) or glaucoma (high pressure in your eye). Talk to your doctor before starting this medication.
 If you are taking beta blockers (used for some heart problems and high blood pressure). Talk to your doctor before          starting this medication.                                                                                                                                                                             Possible side effects 

Possible side effects of Paracetamol/Caffeine/Phenylephrine hydrochloride include signs of an allergic reaction, like rash and itching, signs of breathing problems like difficulty breathing (more likely to happen if you have previously experienced them after taking similar painkiller medications like aspirin and ibuprofen), sudden weight loss, nausea, yellowing of the skin and eyes, loss of appetite, unexplained bleeding or bruising, kin peeling or rash, or mouth ulcers, recurring infections or fevers, visual disturbances (rare but may happen in patients with glaucoma), high blood pressure, or unusual rapid heart rate or a sensation of an unusual rapid or irregular pace and difficulty urinating (rare but may happen in men with an enlarged prostate gland). Other side effects include nervousness, headache, vomiting, dizziness, nausea and difficulty sleeping.

 If you are taking tricyclic antidepressants (used to treat depression), like, amitriptyline and imipramine. Talk to your doctor before starting this medication. 
 If you are taking appetite suppressants. 
 If you are taking or have taken during the previous two weeks MAO inhibitors (used to treat depression), like, moclobemide.

Warnings and precautions

 Talk to your doctor or pharmacist if you develop allergic reactions such as shortness of breath, skin rash, swelling of the face or neck, decreased blood pressure and dizziness. 
 Make sure to tell your doctor if you have liver or kidney problems, including alcoholic liver disease or if you have mild arthritis (joints inflammation) and need to take painkillers on a daily basis.
 Long term use of this medication may be harmful to your liver. 
 Contact your doctor if symptoms are not relieved. 
 This medication should only be taken when necessary.
 Make sure to tell your doctor if you have blood vessel problems like Raynauds disease (a disorder that causes decreased blood flow to your fingers).
 Make sure to avoid excessively taking products that contain caffeine (e.g. tea, coffee, and some canned drinks). Concomitant intake of this medication with caffeine containing products may cause tension and irritation.
 Make sure to tell your doctor if you have previously experienced breathing problems after taking similar painkiller medications like aspirin and ibuprofen.
 Make sure to tell your doctor if you have a severe infection in order to avoid development of metabolic acidosis which is usually manifested by signs and symptoms, like, loss of appetite, deep, difficult and rapid breathing, nausea and vomiting. Contact your doctor right away if you experience any of these signs. 
 Do not use this medication for other purposes and do not share it with anyone. 
Other medicines and Paracetamol/Caffeine/Phenylephrine hydrochloride

Tell your doctor or pharmacist if you are taking, have recently taken or might take any other medications.
 If you are taking metoclopramide or domperidone (used for vomiting or nausea).
 If you are taking cholestyramine (used to lower blood cholesterol). 
 If you are taking blood thinning medications (e.g. warfarin) and you need to take a painkiller every day.  Concomitant chronic use of painkillers and blood thinning medications may increase the risk of bleeding. 
 If you are taking other paracetamol containing products or other cold and flu medications or decongestants. 
 If you are taking medications for heart problems, like, beta blockers (used for some heart problems and high blood pressure) and digoxin. 
 If you are taking tricyclic antidepressants (used to treat depression), like, amitriptyline and imipramine. 
 If you are taking probenecid (used to treat gout).
 If you are taking chloramphenicol (antibiotic).
 If you are taking alcohol. 
 If you are taking appetite suppressants. 
 If you are taking ergotamine or methysergide (used to treat migraine)
 If you are taking or have taken during the previous two weeks MAO inhibitors (used to treat depression), like, moclobemide.
 If you are taking medications to treat convulsions or behavioral problems or anxiety or sleeping problems.

How to take Paracetamol/Caffeine/Phenylephrine hydrochloride

Adults and children aged 12 years and over

Take 1 to 2 caplets every 4 to 6 hours as needed. Do not take more than 4 doses within 24 hours and make sure not to exceed 8 caplets in 24 hours.
Children under 12 years

Do not give Paracetamol/Caffeine/Phenylephrine hydrochloride caplets to children below 12 years of age. 

 Take caplet with or without food.
 Take caplet with a full glass of water. 
 Do not take a higher than recommended dose and do not take the medication more frequently than every 4 hours.  
 Do not take this medication for more than 7 days without consulting your doctor first. 

How to store Paracetamol/Caffeine/Phenylephrine hydrochloride

 Store medication below 30°C
 Keep out of the reach of children and pets
 Do not use beyond the expiry date mentioned on the box 
 Keep medication in its original pack to protect it from moisture and light
 Do not use damaged pills
 Do not dispose medication in the wastewater or household waste ","panadol cold +flu day","Catalog, Search",0.96,Panadol-Cold-Flu-Day-Caplet-24pcs,"Panadol-Cold&Flu-Day Caplet 24pcs",50,
