sku,store_view_code,attribute_set_code,product_type,categories,product_websites,name,description,short_description,weight,product_online,tax_class_name,visibility,price,qty,out_of_stock_qty,use_config_min_qty,website_id,base_image,base_image_label,small_image,small_image_label,thumbnail_image,thumbnail_image_label,swatch_image,swatch_image_label,errors
13766,,Default,simple,"Default Category/Medicines/Hemorroids",base,"Himalaya Pilex ointment  30 gm "," Himalaya Pilex Ointment is formulated to provide relief in the condition of rectal bleeding, pain, itchiness and chronic constipation associated with hemorrhoids.
INDICATIONS
 EXTERNAL AND INTERNAL HEMORRHOIDS
 ANAL FISSURE
 ITCHING 
 DISCOMFORT
HOW TO USE
 TWO TIMES A DAY OR AS NEEDED",,1,1,,"Catalog, Search",1.08,50,0,1,1,"https://eksaab.kasme.com/ab-images/344.jpg ",,"https://eksaab.kasme.com/ab-images/344.jpg ",,"https://eksaab.kasme.com/ab-images/344.jpg ",,"https://eksaab.kasme.com/ab-images/344.jpg ",,"Category ""Default Category/Medicines/Hemorroids"" has not been created. URL key for specified store already exists."
13290,,Default,simple,"Default Category/Medicines/Hemorroids",base,"Neohealar ointment  30 gm ","Product Description:
The plant-based Neo Healar ointment constitutes an ideal treatment for all types of hemorrhoids. Thanks to its unique herbal combination of four plants, Neo Healar provides instant pain relief, reduces discomfort, lessens swelling and itching, and speeds up the healing process.
The natural ingredients of Neo Healar work in synergy to provide those suffering from hemorrhoids pain with multi-symptom relief through effective anti-inflammatory properties that also support the healing process. Neo Healar also helps in repairing the damaged tissues by improving blood flow to the area.
Neo Healar is available in ointment & suppository forms. To get the best result, use ointment and suppositories together.
Caution & Warnings:

Do not use if you are allergic to any of the ingredients.



Ingredients:

Lupinus Albus
Vateria Indica
Mentha Piperita



Aloe Vera",,1,1,,"Catalog, Search",2.25,50,0,1,1,https://eksaab.kasme.com/ab-images/345.jpg,,https://eksaab.kasme.com/ab-images/345.jpg,,https://eksaab.kasme.com/ab-images/345.jpg,,https://eksaab.kasme.com/ab-images/345.jpg,,"Category ""Default Category/Medicines/Hemorroids"" has not been created. URL key for specified store already exists."
11990,,Default,simple,"Default Category/Medicines/Hemorroids",base,"Doxiproct Ointment 30 gm ","what is doxiproct and what is it used for ? Doxiproct Contains  the active substances : calcium dobesilate , which acts on the capillaries ( small blood vessels ) by normalising the resistance and permeability of their wall , and lidocaine , a local analgesic that relieves pain . doxiproct reduces inflammation , bleeding and seepage , and brings quick relef to pain , burning , incting and feelings of tension in th following complaints : internal and external haemorrhoids , anal pruritus ( itching ) and inflammation in the anal region . upon recommendation from a doctor or pharmacist , doxiproct can be used in case of anal fissures, as well as before and after a haemorrhoid operation . what do you need to consider besides the treatment ? - if you suffer from haemorrhoids, you should : -reduce your consumption of spices and seasoning , pork meats , alcohol , tea and coffee , - prevent constipation , e.g , by following a fibrerich diet ( wholemeal bread , cooked and raw green vegetables and fruit) . -avoid gaining excess weight , - maintain strict hygiene in the anal region, and limit the use of soap. when should you not use doxiproct ? - if you are hypersensitive to its components, you should not use doxiproct . doxiproct is medicine intended for adults only : it is not suitable for children . How to use Doxiproct ? As a general rule and if possible, apply the ointment after passing a stool. In the case of internal haemorrhoids, use the cannu- la after first attaching it to the end of the tube. Insert the cannula as far as possible into the anus and squeeze gently on the tube while withdrawing it at the same time. If used in this manner, the tube of ointment contains 10 applications. At the start of treatment, it may be preferable to apply the cream with your fingers. In the event of external haemorrhoids or anal itching, apply a thin layer of ointment several times a day. Treatment with Doxiproct should last no longer than 2 weeks after the first signs of pain. Talk to your doc- tor if necessary. The treatment should only be repeat- ed after a safe medical diagnosis. If you suffer from reduced kidney function, treatment should be limited to a few days. Always use this product according to the dose described in the package leaflet or as prescribed by your doctor. If you think that the effect of this medi- cine is too weak or too strong, talk to your doctor or pharmacist.",,1,1,,"Catalog, Search",1.97,50,0,1,1,"https://eksaab.kasme.com/ab-images/346.jpg ",,"https://eksaab.kasme.com/ab-images/346.jpg ",,"https://eksaab.kasme.com/ab-images/346.jpg ",,"https://eksaab.kasme.com/ab-images/346.jpg ",,"Category ""Default Category/Medicines/Hemorroids"" has not been created. URL key for specified store already exists."
15760,,Default,simple,"Default Category/Medicines/Hemorroids",base,"Vidermina MD rectal lipogel ","LIPOGEL Protective Lipogel specific as preventing and adjuvant treatment of hemorroids and symptoms associated with disorders affecting the perianal and anorectal areas. It so othes and grants relief in case of itching, burning, irritation and pain. It can be used for external use also during pregnancy.
product from the tube and spread with a light massage. licate cleanser, preferably in mousse, and dry thoroughly. External application: dispense about 2 centimeters of Unscrew the cap and remove the tube seal. External application: dispense about 2 centimeters of Close the tube with its cap. Internal application: remove the relevant cap from the ap plicator and screw it onto the tube. Squeeze the tube until the applicator is full, insert it into the rectum and squeeze again until a sufficient amount of product has been introduced. Apply the product also on the external area. Unscrew the applicator after use, clean it and dry it thoroughly, then close it again with its cap. Close the tube with its cap. Frequency of use: 1-3 times a day for external use; 1-2 times a day for internal use or according to medical advice .",,1,1,,"Catalog, Search",8.4,50,0,1,1,"https://eksaab.kasme.com/ab-images/347.jpg ",,"https://eksaab.kasme.com/ab-images/347.jpg ",,"https://eksaab.kasme.com/ab-images/347.jpg ",,"https://eksaab.kasme.com/ab-images/347.jpg ",,"Category ""Default Category/Medicines/Hemorroids"" has not been created. URL key for specified store already exists."
32577,,Default,simple,"Default Category/Medicines/Hemorroids",base,"Newham cream  50 gm ","Helps relieve the local itching , pain and discomfort associated with hemorrhoids . Shrinks hemorrhoidal tissue and relieves burning .provides a coating for relief of anorectal discomforts . Protects the inflamed , irritated anorectal surface to help make bowel movements less painful
Indications : 
 A cream that helps treat symptoms associated with hemorrhoids and anal fissures, such as: itching, pain and discomfort. 
 Helps reduce the size of external hemorrhoids and the associated symptoms. 
 Helps protect the external tissues from inflammation associated with hemorrhoids and anal fissures. 
Contains a range of natural substances:
 Beeswax. 
 Olive oil. 
 Clove oil. 
 Panthenol. 
Dosage :
Apply an appropriate amount of cream to the affected area 3 times",,1,1,,"Catalog, Search",5.95,50,0,1,1,"https://eksaab.kasme.com/ab-images/348.jpg ",,"https://eksaab.kasme.com/ab-images/348.jpg ",,"https://eksaab.kasme.com/ab-images/348.jpg ",,"https://eksaab.kasme.com/ab-images/348.jpg ",,"Category ""Default Category/Medicines/Hemorroids"" has not been created. URL key for specified store already exists."
16396,,Default,simple,"Default Category/Medicines/Hemorroids",base,"Hemopropin propolis oint 20 gm ","description 
Hemopropin ointment provides a protective film which provides fast relief for the burning, itching, and discomfort associated with hemorrhoids. The resulting film prevents contact between the stool and the inflamed tissue which facilitates a faster recovery. Dosage : Apply an appropriate amount of cream to the affected area 3 times",,1,1,,"Catalog, Search",7.8,50,0,1,1,"https://eksaab.kasme.com/ab-images/349.jpg ",,"https://eksaab.kasme.com/ab-images/349.jpg ",,"https://eksaab.kasme.com/ab-images/349.jpg ",,"https://eksaab.kasme.com/ab-images/349.jpg ",,"Category ""Default Category/Medicines/Hemorroids"" has not been created. URL key for specified store already exists."
13767,,Default,simple,"Default Category/Medicines/Hemorroids",base,"pilex tablets 60 tab herbal ","DESCRIPTION :

Hemorrhoid treatment: Pilex shrinks the lint of lint, controls bleeding, and heals inflamed skin and mucous membrane. The medication provides symptomatic relief from rectal bleeding, pain and itching and corrects the chronic constipation associated with hemorrhoids.

INDICATIONS
 RECTAL BLEEDING
 PAIN
 ITCHINESS
 HEMORRHOIDS
HOW TO USE
 2 TAB MORNING AND TWO TABLET IN NIGHT",,1,1,,"Catalog, Search",1.75,50,0,1,1,"https://eksaab.kasme.com/ab-images/350.jpg ",,"https://eksaab.kasme.com/ab-images/350.jpg ",,"https://eksaab.kasme.com/ab-images/350.jpg ",,"https://eksaab.kasme.com/ab-images/350.jpg ",,"Category ""Default Category/Medicines/Hemorroids"" has not been created. URL key for specified store already exists."
20114,,Default,simple,"Default Category/Medicines/Hemorroids",base,"Venosmil 200 mg 60 Capsulas ","Hydrosmin is a drug belonging to the flavonoid group and acts on the effects of venous blood stasis in the veins of the lower limbs (known as venous insufficiency), usually due to varicose veins or old venous thrombosis.
Venosil is used for short-term relief (two to three months) of edema and symptoms associated with chronic venous insufficiency (pain, weight in the legs, swelling, etc. How to use
Always take this medicine exactly as recommended by your doctor or pharmacist. Talk to your doctor or pharmacist if you have any questions.
Adults:
The usual daily dose of Venosil is one capsule of 200 mg three times a day at mealtime.
Elderly patients with renal or hepatic impairment.
There are no studies in these groups, as the prescribed medicine is at the discretion of your doctor.
Application
Once removed from the blister, the capsule should be taken immediately with a glass of water or other fluid to facilitate swallowing.
If you take more Venosmill than you should
Take Venosmal just as prescribed.
Overdose and / or intoxication has been reported. If you inadvertently take a higher dose of Venosil, talk to your doctor or pharmacist immediately.
If you forget to take Venosmill
Do not take a double dose to make up for the dose you missed.
If you miss the daily dose, take the next dose as prescribed by your doctor.
If you have any further questions on the use of this medicine, ask your doctor or pharmacist.",,1,1,,"Catalog, Search",3.44,50,0,1,1,https://eksaab.kasme.com/ab-images/351.jpg,,https://eksaab.kasme.com/ab-images/351.jpg,,https://eksaab.kasme.com/ab-images/351.jpg,,https://eksaab.kasme.com/ab-images/351.jpg,,"Category ""Default Category/Medicines/Hemorroids"" has not been created. URL key for specified store already exists."
