sku,base_image,small_image,thumbnail_image,swatch_image
25114,https://albiraq.kasme.com/images/771.jpg,https://albiraq.kasme.com/images/771.jpg,https://albiraq.kasme.com/images/771.jpg,https://albiraq.kasme.com/images/771.jpg
25107,https://albiraq.kasme.com/images/772.jpg,https://albiraq.kasme.com/images/772.jpg,https://albiraq.kasme.com/images/772.jpg,https://albiraq.kasme.com/images/772.jpg
25110,https://albiraq.kasme.com/images/773.jpg,https://albiraq.kasme.com/images/773.jpg,https://albiraq.kasme.com/images/773.jpg,https://albiraq.kasme.com/images/773.jpg
25125,https://albiraq.kasme.com/images/774.jpg,https://albiraq.kasme.com/images/774.jpg,https://albiraq.kasme.com/images/774.jpg,https://albiraq.kasme.com/images/774.jpg
25121,https://albiraq.kasme.com/images/775.jpg,https://albiraq.kasme.com/images/775.jpg,https://albiraq.kasme.com/images/775.jpg,https://albiraq.kasme.com/images/775.jpg
25118,https://albiraq.kasme.com/images/776.jpg,https://albiraq.kasme.com/images/776.jpg,https://albiraq.kasme.com/images/776.jpg,https://albiraq.kasme.com/images/776.jpg
25112,https://albiraq.kasme.com/images/777.jpg,https://albiraq.kasme.com/images/777.jpg,https://albiraq.kasme.com/images/777.jpg,https://albiraq.kasme.com/images/777.jpg
25120,https://albiraq.kasme.com/images/778.jpg,https://albiraq.kasme.com/images/778.jpg,https://albiraq.kasme.com/images/778.jpg,https://albiraq.kasme.com/images/778.jpg
25108,https://albiraq.kasme.com/images/779.jpg,https://albiraq.kasme.com/images/779.jpg,https://albiraq.kasme.com/images/779.jpg,https://albiraq.kasme.com/images/779.jpg
25106,https://albiraq.kasme.com/images/780.Jpg,https://albiraq.kasme.com/images/780.jpg,https://albiraq.kasme.com/images/780.jpg,https://albiraq.kasme.com/images/780.jpg
25126,https://albiraq.kasme.com/images/781.jpg,https://albiraq.kasme.com/images/781.jpg,https://albiraq.kasme.com/images/781.jpg,https://albiraq.kasme.com/images/781.jpg
25105,https://albiraq.kasme.com/images/782.jpg,https://albiraq.kasme.com/images/782.jpg,https://albiraq.kasme.com/images/782.jpg,https://albiraq.kasme.com/images/782.jpg
25542,https://albiraq.kasme.com/images/783.jpg,https://albiraq.kasme.com/images/783.jpg,https://albiraq.kasme.com/images/783.jpg,https://albiraq.kasme.com/images/783.jpg
25129,https://albiraq.kasme.com/images/784.jpg,https://albiraq.kasme.com/images/784.jpg,https://albiraq.kasme.com/images/784.jpg,https://albiraq.kasme.com/images/784.jpg
25116,https://albiraq.kasme.com/images/786.jpg,https://albiraq.kasme.com/images/786.jpg,https://albiraq.kasme.com/images/786.jpg,https://albiraq.kasme.com/images/786.jpg
25115,https://albiraq.kasme.com/images/787.jpg,https://albiraq.kasme.com/images/787.jpg,https://albiraq.kasme.com/images/787.jpg,https://albiraq.kasme.com/images/787.jpg
25117,https://albiraq.kasme.com/images/788.jpg,https://albiraq.kasme.com/images/788.jpg,https://albiraq.kasme.com/images/788.jpg,https://albiraq.kasme.com/images/788.jpg
25123,https://albiraq.kasme.com/images/789.jpg,https://albiraq.kasme.com/images/789.jpg,https://albiraq.kasme.com/images/789.jpg,https://albiraq.kasme.com/images/789.jpg
25104,https://albiraq.kasme.com/images/790.jpg,https://albiraq.kasme.com/images/790.jpg,https://albiraq.kasme.com/images/790.jpg,https://albiraq.kasme.com/images/790.jpg
25113,https://albiraq.kasme.com/images/791.jpg,https://albiraq.kasme.com/images/791.jpg,https://albiraq.kasme.com/images/791.jpg,https://albiraq.kasme.com/images/791.jpg
25119,https://albiraq.kasme.com/images/792.jpg,https://albiraq.kasme.com/images/792.jpg,https://albiraq.kasme.com/images/792.jpg,https://albiraq.kasme.com/images/792.jpg
25128,https://albiraq.kasme.com/images/793.jpg,https://albiraq.kasme.com/images/793.jpg,https://albiraq.kasme.com/images/793.jpg,https://albiraq.kasme.com/images/793.jpg
25134,https://albiraq.kasme.com/images/794.jpg,https://albiraq.kasme.com/images/794.jpg,https://albiraq.kasme.com/images/794.jpg,https://albiraq.kasme.com/images/794.jpg
25109,https://albiraq.kasme.com/images/795.jpg,https://albiraq.kasme.com/images/795.jpg,https://albiraq.kasme.com/images/795.jpg,https://albiraq.kasme.com/images/795.jpg
25133,https://albiraq.kasme.com/images/796.jpg,https://albiraq.kasme.com/images/796.jpg,https://albiraq.kasme.com/images/796.jpg,https://albiraq.kasme.com/images/796.jpg
25124,https://albiraq.kasme.com/images/797.jpg,https://albiraq.kasme.com/images/797.jpg,https://albiraq.kasme.com/images/797.jpg,https://albiraq.kasme.com/images/797.jpg
25111,https://albiraq.kasme.com/images/798.jpg,https://albiraq.kasme.com/images/798.jpg,https://albiraq.kasme.com/images/798.jpg,https://albiraq.kasme.com/images/798.jpg
25132,https://albiraq.kasme.com/images/799.jpg,https://albiraq.kasme.com/images/799.jpg,https://albiraq.kasme.com/images/799.jpg,https://albiraq.kasme.com/images/799.jpg
25103,https://albiraq.kasme.com/images/800.jpg,https://albiraq.kasme.com/images/800.jpg,https://albiraq.kasme.com/images/800.jpg,https://albiraq.kasme.com/images/800.jpg
25130,https://albiraq.kasme.com/images/801.jpg,https://albiraq.kasme.com/images/801.jpg,https://albiraq.kasme.com/images/801.jpg,https://albiraq.kasme.com/images/801.jpg
25131,https://albiraq.kasme.com/images/802.jpg,https://albiraq.kasme.com/images/802.jpg,https://albiraq.kasme.com/images/802.jpg,https://albiraq.kasme.com/images/802.jpg
25122,https://albiraq.kasme.com/images/803.jpg,https://albiraq.kasme.com/images/803.jpg,https://albiraq.kasme.com/images/803.jpg,https://albiraq.kasme.com/images/803.jpg
25127,https://albiraq.kasme.com/images/804.jpg,https://albiraq.kasme.com/images/804.jpg,https://albiraq.kasme.com/images/804.jpg,https://albiraq.kasme.com/images/804.jpg
28528,https://albiraq.kasme.com/images/583.jpg,https://albiraq.kasme.com/images/583.jpg,https://albiraq.kasme.com/images/583.jpg,https://albiraq.kasme.com/images/583.jpg
28537,https://albiraq.kasme.com/images/584.jpg,https://albiraq.kasme.com/images/584.jpg,https://albiraq.kasme.com/images/584.jpg,https://albiraq.kasme.com/images/584.jpg
21249,https://albiraq.kasme.com/images/585.jpg,https://albiraq.kasme.com/images/585.jpg,https://albiraq.kasme.com/images/585.jpg,https://albiraq.kasme.com/images/585.jpg
32779,https://albiraq.kasme.com/images/586.jpg,https://albiraq.kasme.com/images/586.jpg,https://albiraq.kasme.com/images/586.jpg,https://albiraq.kasme.com/images/586.jpg
28515,https://albiraq.kasme.com/images/587.jpg,https://albiraq.kasme.com/images/587.jpg,https://albiraq.kasme.com/images/587.jpg,https://albiraq.kasme.com/images/587.jpg
20544,https://albiraq.kasme.com/images/588.jpg,https://albiraq.kasme.com/images/588.jpg,https://albiraq.kasme.com/images/588.jpg,https://albiraq.kasme.com/images/588.jpg
12635,https://albiraq.kasme.com/images/589.jpg,https://albiraq.kasme.com/images/589.jpg,https://albiraq.kasme.com/images/589.jpg,https://albiraq.kasme.com/images/589.jpg
32088,https://albiraq.kasme.com/images/590.jpg,https://albiraq.kasme.com/images/590.jpg,https://albiraq.kasme.com/images/590.jpg,https://albiraq.kasme.com/images/590.jpg
22703,https://albiraq.kasme.com/images/591.jpg,https://albiraq.kasme.com/images/591.jpg,https://albiraq.kasme.com/images/591.jpg,https://albiraq.kasme.com/images/591.jpg
32269,https://albiraq.kasme.com/images/592.jpg,https://albiraq.kasme.com/images/592.jpg,https://albiraq.kasme.com/images/592.jpg,https://albiraq.kasme.com/images/592.jpg
15596,https://albiraq.kasme.com/images/593.jpg,https://albiraq.kasme.com/images/593.jpg,https://albiraq.kasme.com/images/593.jpg,https://albiraq.kasme.com/images/593.jpg
14533,https://albiraq.kasme.com/images/594.jpg,https://albiraq.kasme.com/images/594.jpg,https://albiraq.kasme.com/images/594.jpg,https://albiraq.kasme.com/images/594.jpg
28526,https://albiraq.kasme.com/images/595.jpg,https://albiraq.kasme.com/images/595.jpg,https://albiraq.kasme.com/images/595.jpg,https://albiraq.kasme.com/images/595.jpg
28533,https://albiraq.kasme.com/images/596.jpg,https://albiraq.kasme.com/images/596.jpg,https://albiraq.kasme.com/images/596.jpg,https://albiraq.kasme.com/images/596.jpg
33850,https://albiraq.kasme.com/images/597.jpg,https://albiraq.kasme.com/images/597.jpg,https://albiraq.kasme.com/images/597.jpg,https://albiraq.kasme.com/images/597.jpg
15859,https://albiraq.kasme.com/images/599.jpg,https://albiraq.kasme.com/images/599.jpg,https://albiraq.kasme.com/images/599.jpg,https://albiraq.kasme.com/images/599.jpg
15860,https://albiraq.kasme.com/images/600.jpg,https://albiraq.kasme.com/images/600.jpg,https://albiraq.kasme.com/images/600.jpg,https://albiraq.kasme.com/images/600.jpg
13295,https://albiraq.kasme.com/images/601.jpg,https://albiraq.kasme.com/images/601.jpg,https://albiraq.kasme.com/images/601.jpg,https://albiraq.kasme.com/images/601.jpg
16400,https://albiraq.kasme.com/images/602.jpg,https://albiraq.kasme.com/images/602.jpg,https://albiraq.kasme.com/images/602.jpg,https://albiraq.kasme.com/images/602.jpg
34168,https://albiraq.kasme.com/images/603.jpg,https://albiraq.kasme.com/images/603.jpg,https://albiraq.kasme.com/images/603.jpg,https://albiraq.kasme.com/images/603.jpg
30385,https://albiraq.kasme.com/images/604.jpg,https://albiraq.kasme.com/images/604.jpg,https://albiraq.kasme.com/images/604.jpg,https://albiraq.kasme.com/images/604.jpg
15858,https://albiraq.kasme.com/images/605.jpg,https://albiraq.kasme.com/images/605.jpg,https://albiraq.kasme.com/images/605.jpg,https://albiraq.kasme.com/images/605.jpg
28544,https://albiraq.kasme.com/images/606.jpg,https://albiraq.kasme.com/images/606.jpg,https://albiraq.kasme.com/images/606.jpg,https://albiraq.kasme.com/images/606.jpg
10429,https://albiraq.kasme.com/images/612.jpg,https://albiraq.kasme.com/images/612.jpg,https://albiraq.kasme.com/images/612.jpg,https://albiraq.kasme.com/images/612.jpg
26887,https://albiraq.kasme.com/images/613.jpg,https://albiraq.kasme.com/images/613.jpg,https://albiraq.kasme.com/images/613.jpg,https://albiraq.kasme.com/images/613.jpg
15769,https://albiraq.kasme.com/images/632.jpg,https://albiraq.kasme.com/images/632.jpg,https://albiraq.kasme.com/images/632.jpg,https://albiraq.kasme.com/images/632.jpg
15770,https://albiraq.kasme.com/images/633.jpg,https://albiraq.kasme.com/images/633.jpg,https://albiraq.kasme.com/images/633.jpg,https://albiraq.kasme.com/images/633.jpg
21250,https://albiraq.kasme.com/images/634.jpg,https://albiraq.kasme.com/images/634.jpg,https://albiraq.kasme.com/images/634.jpg,https://albiraq.kasme.com/images/634.jpg
15601,https://albiraq.kasme.com/images/635.jpg,https://albiraq.kasme.com/images/635.jpg,https://albiraq.kasme.com/images/635.jpg,https://albiraq.kasme.com/images/635.jpg
20545,https://albiraq.kasme.com/images/616.jpg,https://albiraq.kasme.com/images/616.jpg,https://albiraq.kasme.com/images/616.jpg,https://albiraq.kasme.com/images/616.jpg
24275,https://albiraq.kasme.com/images/636.jpg,https://albiraq.kasme.com/images/636.jpg,https://albiraq.kasme.com/images/636.jpg,https://albiraq.kasme.com/images/636.jpg
33795,https://albiraq.kasme.com/images/637.jpg,https://albiraq.kasme.com/images/637.jpg,https://albiraq.kasme.com/images/637.jpg,https://albiraq.kasme.com/images/637.jpg
14528,https://albiraq.kasme.com/images/638.jpg,https://albiraq.kasme.com/images/638.jpg,https://albiraq.kasme.com/images/638.jpg,https://albiraq.kasme.com/images/638.jpg
33795,https://albiraq.kasme.com/images/654.jpg,https://albiraq.kasme.com/images/654.jpg,https://albiraq.kasme.com/images/654.jpg,https://albiraq.kasme.com/images/654.jpg
11562,https://albiraq.kasme.com/images/639.jpg,https://albiraq.kasme.com/images/639.jpg,https://albiraq.kasme.com/images/639.jpg,https://albiraq.kasme.com/images/639.jpg
23782,https://albiraq.kasme.com/images/640.1.jpg,https://albiraq.kasme.com/images/640.1.jpg,https://albiraq.kasme.com/images/640.1.jpg,https://albiraq.kasme.com/images/640.1.jpg
20010,https://albiraq.kasme.com/images/641.jpg,https://albiraq.kasme.com/images/641.jpg,https://albiraq.kasme.com/images/641.jpg,https://albiraq.kasme.com/images/641.jpg
33761,https://albiraq.kasme.com/images/642.jpg,https://albiraq.kasme.com/images/642.jpg,https://albiraq.kasme.com/images/642.jpg,https://albiraq.kasme.com/images/642.jpg
22314,https://albiraq.kasme.com/images/643.jpg,https://albiraq.kasme.com/images/643.jpg,https://albiraq.kasme.com/images/643.jpg,https://albiraq.kasme.com/images/643.jpg
23087,https://albiraq.kasme.com/images/644.jpg,https://albiraq.kasme.com/images/644.jpg,https://albiraq.kasme.com/images/644.jpg,https://albiraq.kasme.com/images/644.jpg
14574,https://albiraq.kasme.com/images/645.jpg,https://albiraq.kasme.com/images/645.jpg,https://albiraq.kasme.com/images/645.jpg,https://albiraq.kasme.com/images/645.jpg
20010,https://albiraq.kasme.com/images/646.jpg,https://albiraq.kasme.com/images/646.jpg,https://albiraq.kasme.com/images/646.jpg,https://albiraq.kasme.com/images/646.jpg
32549,https://albiraq.kasme.com/images/647.jpg,https://albiraq.kasme.com/images/647.jpg,https://albiraq.kasme.com/images/647.jpg,https://albiraq.kasme.com/images/647.jpg
33023,https://albiraq.kasme.com/images/648.jpg,https://albiraq.kasme.com/images/648.jpg,https://albiraq.kasme.com/images/648.jpg,https://albiraq.kasme.com/images/648.jpg
23094,https://albiraq.kasme.com/images/649.jpg,https://albiraq.kasme.com/images/649.jpg,https://albiraq.kasme.com/images/649.jpg,https://albiraq.kasme.com/images/649.jpg
33311,https://albiraq.kasme.com/images/650.jpg,https://albiraq.kasme.com/images/650.jpg,https://albiraq.kasme.com/images/650.jpg,https://albiraq.kasme.com/images/650.jpg
16365,https://albiraq.kasme.com/images/614.jpg,https://albiraq.kasme.com/images/614.jpg,https://albiraq.kasme.com/images/614.jpg,https://albiraq.kasme.com/images/614.jpg
16366,https://albiraq.kasme.com/images/615.jpg,https://albiraq.kasme.com/images/615.jpg,https://albiraq.kasme.com/images/615.jpg,https://albiraq.kasme.com/images/615.jpg
16369,https://albiraq.kasme.com/images/617.jpg,https://albiraq.kasme.com/images/617.jpg,https://albiraq.kasme.com/images/617.jpg,https://albiraq.kasme.com/images/617.jpg
16370,https://albiraq.kasme.com/images/618.jpg,https://albiraq.kasme.com/images/618.jpg,https://albiraq.kasme.com/images/618.jpg,https://albiraq.kasme.com/images/618.jpg
15623,https://albiraq.kasme.com/images/619.jpg,https://albiraq.kasme.com/images/619.jpg,https://albiraq.kasme.com/images/619.jpg,https://albiraq.kasme.com/images/619.jpg
28532,https://albiraq.kasme.com/images/620.jpg,https://albiraq.kasme.com/images/620.jpg,https://albiraq.kasme.com/images/620.jpg,https://albiraq.kasme.com/images/620.jpg
20706,https://albiraq.kasme.com/images/621.jpg,https://albiraq.kasme.com/images/621.jpg,https://albiraq.kasme.com/images/621.jpg,https://albiraq.kasme.com/images/621.jpg
12125,https://albiraq.kasme.com/images/622.jpg,https://albiraq.kasme.com/images/622.jpg,https://albiraq.kasme.com/images/622.jpg,https://albiraq.kasme.com/images/622.jpg
16231,https://albiraq.kasme.com/images/623.jpg,https://albiraq.kasme.com/images/623.jpg,https://albiraq.kasme.com/images/623.jpg,https://albiraq.kasme.com/images/623.jpg
28527,https://albiraq.kasme.com/images/624.1jpg,https://albiraq.kasme.com/images/624.1jpg,https://albiraq.kasme.com/images/624.1jpg,https://albiraq.kasme.com/images/624.1jpg
28524,https://albiraq.kasme.com/images/625.jpg,https://albiraq.kasme.com/images/625.jpg,https://albiraq.kasme.com/images/625.jpg,https://albiraq.kasme.com/images/625.jpg
11529,https://albiraq.kasme.com/images/627.jpg,https://albiraq.kasme.com/images/627.jpg,https://albiraq.kasme.com/images/627.jpg,https://albiraq.kasme.com/images/627.jpg
28532,https://albiraq.kasme.com/images/628.jpg,https://albiraq.kasme.com/images/628.jpg,https://albiraq.kasme.com/images/628.jpg,https://albiraq.kasme.com/images/628.jpg
24367,https://albiraq.kasme.com/images/629.jpg,https://albiraq.kasme.com/images/629.jpg,https://albiraq.kasme.com/images/629.jpg,https://albiraq.kasme.com/images/629.jpg
15942,https://albiraq.kasme.com/images/630.jpg,https://albiraq.kasme.com/images/630.jpg,https://albiraq.kasme.com/images/630.jpg,https://albiraq.kasme.com/images/630.jpg
13296,https://albiraq.kasme.com/images/631.jpg,https://albiraq.kasme.com/images/631.jpg,https://albiraq.kasme.com/images/631.jpg,https://albiraq.kasme.com/images/631.jpg
16372,https://albiraq.kasme.com/images/659.jpg,https://albiraq.kasme.com/images/659.jpg,https://albiraq.kasme.com/images/659.jpg,https://albiraq.kasme.com/images/659.jpg
20551,https://albiraq.kasme.com/images/655.jpg,https://albiraq.kasme.com/images/655.jpg,https://albiraq.kasme.com/images/655.jpg,https://albiraq.kasme.com/images/655.jpg
28541,https://albiraq.kasme.com/images/654.jpg,https://albiraq.kasme.com/images/654.jpg,https://albiraq.kasme.com/images/654.jpg,https://albiraq.kasme.com/images/654.jpg
26441,https://albiraq.kasme.com/images/658.jpg,https://albiraq.kasme.com/images/658.jpg,https://albiraq.kasme.com/images/658.jpg,https://albiraq.kasme.com/images/658.jpg
17330,https://albiraq.kasme.com/images/656.jpg,https://albiraq.kasme.com/images/656.jpg,https://albiraq.kasme.com/images/656.jpg,https://albiraq.kasme.com/images/656.jpg
15600,https://albiraq.kasme.com/images/657.jpg,https://albiraq.kasme.com/images/657.jpg,https://albiraq.kasme.com/images/657.jpg,https://albiraq.kasme.com/images/657.jpg
15869,https://albiraq.kasme.com/images/651.jpg,https://albiraq.kasme.com/images/651.jpg,https://albiraq.kasme.com/images/651.jpg,https://albiraq.kasme.com/images/651.jpg
18898,https://albiraq.kasme.com/images/652.jpg,https://albiraq.kasme.com/images/652.jpg,https://albiraq.kasme.com/images/652.jpg,https://albiraq.kasme.com/images/652.jpg
17293,https://albiraq.kasme.com/images/653.jpg,https://albiraq.kasme.com/images/653.jpg,https://albiraq.kasme.com/images/653.jpg,https://albiraq.kasme.com/images/653.jpg
16531,https://albiraq.kasme.com/images/683.jpg,https://albiraq.kasme.com/images/683.jpg,https://albiraq.kasme.com/images/683.jpg,https://albiraq.kasme.com/images/683.jpg
14955,https://albiraq.kasme.com/images/475.jpg,https://albiraq.kasme.com/images/475.jpg,https://albiraq.kasme.com/images/475.jpg,https://albiraq.kasme.com/images/475.jpg
15946,https://albiraq.kasme.com/images/476.jpg,https://albiraq.kasme.com/images/476.jpg,https://albiraq.kasme.com/images/476.jpg,https://albiraq.kasme.com/images/476.jpg
15822,https://albiraq.kasme.com/images/447.jpg,https://albiraq.kasme.com/images/447.jpg,https://albiraq.kasme.com/images/447.jpg,https://albiraq.kasme.com/images/447.jpg
14576,https://albiraq.kasme.com/images/478.jpg,https://albiraq.kasme.com/images/478.jpg,https://albiraq.kasme.com/images/478.jpg,https://albiraq.kasme.com/images/478.jpg
18398,https://albiraq.kasme.com/images/479.jpg,https://albiraq.kasme.com/images/479.jpg,https://albiraq.kasme.com/images/479.jpg,https://albiraq.kasme.com/images/479.jpg
29635,https://albiraq.kasme.com/images/480.jpg,https://albiraq.kasme.com/images/480.jpg,https://albiraq.kasme.com/images/480.jpg,https://albiraq.kasme.com/images/480.jpg
14648,https://albiraq.kasme.com/images/481.jpg,https://albiraq.kasme.com/images/481.jpg,https://albiraq.kasme.com/images/481.jpg,https://albiraq.kasme.com/images/481.jpg
11481,https://albiraq.kasme.com/images/482.jpg,https://albiraq.kasme.com/images/482.jpg,https://albiraq.kasme.com/images/482.jpg,https://albiraq.kasme.com/images/482.jpg
14953,https://albiraq.kasme.com/images/483.jpg,https://albiraq.kasme.com/images/483.jpg,https://albiraq.kasme.com/images/483.jpg,https://albiraq.kasme.com/images/483.jpg
14581,https://albiraq.kasme.com/images/484.jpg,https://albiraq.kasme.com/images/484.jpg,https://albiraq.kasme.com/images/484.jpg,https://albiraq.kasme.com/images/484.jpg
12056,https://albiraq.kasme.com/images/485.jpg,https://albiraq.kasme.com/images/485.jpg,https://albiraq.kasme.com/images/485.jpg,https://albiraq.kasme.com/images/485.jpg
15539,https://albiraq.kasme.com/images/486.jpg,https://albiraq.kasme.com/images/486.jpg,https://albiraq.kasme.com/images/486.jpg,https://albiraq.kasme.com/images/486.jpg
20342,https://albiraq.kasme.com/images/487.jpg,https://albiraq.kasme.com/images/487.jpg,https://albiraq.kasme.com/images/487.jpg,https://albiraq.kasme.com/images/487.jpg
20372,https://albiraq.kasme.com/images/488.jpg,https://albiraq.kasme.com/images/488.jpg,https://albiraq.kasme.com/images/488.jpg,https://albiraq.kasme.com/images/488.jpg
14580,https://albiraq.kasme.com/images/489.jpg,https://albiraq.kasme.com/images/489.jpg,https://albiraq.kasme.com/images/489.jpg,https://albiraq.kasme.com/images/489.jpg
12571,https://albiraq.kasme.com/images/490.jpg,https://albiraq.kasme.com/images/490.jpg,https://albiraq.kasme.com/images/490.jpg,https://albiraq.kasme.com/images/490.jpg
16132,https://albiraq.kasme.com/images/491.jpg,https://albiraq.kasme.com/images/491.jpg,https://albiraq.kasme.com/images/491.jpg,https://albiraq.kasme.com/images/491.jpg
32949,https://albiraq.kasme.com/images/492.jpg,https://albiraq.kasme.com/images/492.jpg,https://albiraq.kasme.com/images/492.jpg,https://albiraq.kasme.com/images/492.jpg
18416,https://albiraq.kasme.com/images/493.jpg,https://albiraq.kasme.com/images/493.jpg,https://albiraq.kasme.com/images/493.jpg,https://albiraq.kasme.com/images/493.jpg
16395,https://albiraq.kasme.com/images/494.jpg,https://albiraq.kasme.com/images/494.jpg,https://albiraq.kasme.com/images/494.jpg,https://albiraq.kasme.com/images/494.jpg
12200,https://albiraq.kasme.com/images/495.jpg,https://albiraq.kasme.com/images/495.jpg,https://albiraq.kasme.com/images/495.jpg,https://albiraq.kasme.com/images/495.jpg
16207,https://albiraq.kasme.com/images/496.jpg,https://albiraq.kasme.com/images/496.jpg,https://albiraq.kasme.com/images/496.jpg,https://albiraq.kasme.com/images/496.jpg
28085,https://albiraq.kasme.com/images/497.jpg,https://albiraq.kasme.com/images/497.jpg,https://albiraq.kasme.com/images/497.jpg,https://albiraq.kasme.com/images/497.jpg
20292,https://albiraq.kasme.com/images/498.Jpg,https://albiraq.kasme.com/images/498.Jpg,https://albiraq.kasme.com/images/498.Jpg,https://albiraq.kasme.com/images/498.Jpg
20300,https://albiraq.kasme.com/images/499.jpg,https://albiraq.kasme.com/images/499.jpg,https://albiraq.kasme.com/images/499.jpg,https://albiraq.kasme.com/images/499.jpg
14699,https://albiraq.kasme.com/images/509.jpg,https://albiraq.kasme.com/images/509.jpg,https://albiraq.kasme.com/images/509.jpg,https://albiraq.kasme.com/images/509.jpg
16198,https://albiraq.kasme.com/images/501.jpg,https://albiraq.kasme.com/images/501.jpg,https://albiraq.kasme.com/images/501.jpg,https://albiraq.kasme.com/images/501.jpg
16355,https://albiraq.kasme.com/images/502.jpg,https://albiraq.kasme.com/images/502.jpg,https://albiraq.kasme.com/images/502.jpg,https://albiraq.kasme.com/images/502.jpg
11472,https://albiraq.kasme.com/images/503.jpg,https://albiraq.kasme.com/images/503.jpg,https://albiraq.kasme.com/images/503.jpg,https://albiraq.kasme.com/images/503.jpg
16194,https://albiraq.kasme.com/images/504.jpg,https://albiraq.kasme.com/images/504.jpg,https://albiraq.kasme.com/images/504.jpg,https://albiraq.kasme.com/images/504.jpg
32745,https://albiraq.kasme.com/images/505.jpg,https://albiraq.kasme.com/images/505.jpg,https://albiraq.kasme.com/images/505.jpg,https://albiraq.kasme.com/images/505.jpg
20293,https://albiraq.kasme.com/images/506.jpg,https://albiraq.kasme.com/images/506.jpg,https://albiraq.kasme.com/images/506.jpg,https://albiraq.kasme.com/images/506.jpg
20302,https://albiraq.kasme.com/images/507.jpg,https://albiraq.kasme.com/images/507.jpg,https://albiraq.kasme.com/images/507.jpg,https://albiraq.kasme.com/images/507.jpg
26076,https://albiraq.kasme.com/images/508.jpg,https://albiraq.kasme.com/images/508.jpg,https://albiraq.kasme.com/images/508.jpg,https://albiraq.kasme.com/images/508.jpg
32749,https://albiraq.kasme.com/images/500.jpg,https://albiraq.kasme.com/images/500.jpg,https://albiraq.kasme.com/images/500.jpg,https://albiraq.kasme.com/images/500.jpg
14280,https://albiraq.kasme.com/images/510.jpg,https://albiraq.kasme.com/images/510.jpg,https://albiraq.kasme.com/images/510.jpg,https://albiraq.kasme.com/images/510.jpg
27673,https://albiraq.kasme.com/images/511.jpg,https://albiraq.kasme.com/images/511.jpg,https://albiraq.kasme.com/images/511.jpg,https://albiraq.kasme.com/images/511.jpg
33905,https://albiraq.kasme.com/images/512.jpg,https://albiraq.kasme.com/images/512.jpg,https://albiraq.kasme.com/images/512.jpg,https://albiraq.kasme.com/images/512.jpg
16340,https://albiraq.kasme.com/images/513.jpg,https://albiraq.kasme.com/images/513.jpg,https://albiraq.kasme.com/images/513.jpg,https://albiraq.kasme.com/images/513.jpg
26792,https://albiraq.kasme.com/images/514.jpg,https://albiraq.kasme.com/images/514.jpg,https://albiraq.kasme.com/images/514.jpg,https://albiraq.kasme.com/images/514.jpg
11338,https://albiraq.kasme.com/images/515.jpg,https://albiraq.kasme.com/images/515.jpg,https://albiraq.kasme.com/images/515.jpg,https://albiraq.kasme.com/images/515.jpg
14909,https://albiraq.kasme.com/images/516.jpg,https://albiraq.kasme.com/images/516.jpg,https://albiraq.kasme.com/images/516.jpg,https://albiraq.kasme.com/images/516.jpg
20301,https://albiraq.kasme.com/images/517.jpg,https://albiraq.kasme.com/images/517.jpg,https://albiraq.kasme.com/images/517.jpg,https://albiraq.kasme.com/images/517.jpg
32768,https://albiraq.kasme.com/images/518.jpg,https://albiraq.kasme.com/images/518.jpg,https://albiraq.kasme.com/images/518.jpg,https://albiraq.kasme.com/images/518.jpg
14188,https://albiraq.kasme.com/images/519.jpg,https://albiraq.kasme.com/images/519.jpg,https://albiraq.kasme.com/images/519.jpg,https://albiraq.kasme.com/images/519.jpg
14187,https://albiraq.kasme.com/images/520.jpg,https://albiraq.kasme.com/images/520.jpg,https://albiraq.kasme.com/images/520.jpg,https://albiraq.kasme.com/images/520.jpg
16359,https://albiraq.kasme.com/images/521.jpg,https://albiraq.kasme.com/images/521.jpg,https://albiraq.kasme.com/images/521.jpg,https://albiraq.kasme.com/images/521.jpg
16542,https://albiraq.kasme.com/images/522.jpg,https://albiraq.kasme.com/images/522.jpg,https://albiraq.kasme.com/images/522.jpg,https://albiraq.kasme.com/images/522.jpg
26635,https://albiraq.kasme.com/images/523.jpg,https://albiraq.kasme.com/images/523.jpg,https://albiraq.kasme.com/images/523.jpg,https://albiraq.kasme.com/images/523.jpg
11324,https://albiraq.kasme.com/images/524.jpg,https://albiraq.kasme.com/images/524.jpg,https://albiraq.kasme.com/images/524.jpg,https://albiraq.kasme.com/images/524.jpg
14907,https://albiraq.kasme.com/images/525.jpg,https://albiraq.kasme.com/images/525.jpg,https://albiraq.kasme.com/images/525.jpg,https://albiraq.kasme.com/images/525.jpg
14780,https://albiraq.kasme.com/images/526.jpg,https://albiraq.kasme.com/images/526.jpg,https://albiraq.kasme.com/images/526.jpg,https://albiraq.kasme.com/images/526.jpg
16618,https://albiraq.kasme.com/images/527.jpg,https://albiraq.kasme.com/images/527.jpg,https://albiraq.kasme.com/images/527.jpg,https://albiraq.kasme.com/images/527.jpg
16233,https://albiraq.kasme.com/images/528.jpg,https://albiraq.kasme.com/images/528.jpg,https://albiraq.kasme.com/images/528.jpg,https://albiraq.kasme.com/images/528.jpg
20297,https://albiraq.kasme.com/images/529.jpg,https://albiraq.kasme.com/images/529.jpg,https://albiraq.kasme.com/images/529.jpg,https://albiraq.kasme.com/images/529.jpg
13692,https://albiraq.kasme.com/images/530.jpg,https://albiraq.kasme.com/images/530.jpg,https://albiraq.kasme.com/images/530.jpg,https://albiraq.kasme.com/images/530.jpg
33306,https://albiraq.kasme.com/images/531.jpg,https://albiraq.kasme.com/images/531.jpg,https://albiraq.kasme.com/images/531.jpg,https://albiraq.kasme.com/images/531.jpg
25976,https://albiraq.kasme.com/images/532.jpg,https://albiraq.kasme.com/images/532.jpg,https://albiraq.kasme.com/images/532.jpg,https://albiraq.kasme.com/images/532.jpg
16266,https://albiraq.kasme.com/images/533.jpg,https://albiraq.kasme.com/images/533.jpg,https://albiraq.kasme.com/images/533.jpg,https://albiraq.kasme.com/images/533.jpg
33024,https://albiraq.kasme.com/images/534.jpg,https://albiraq.kasme.com/images/534.jpg,https://albiraq.kasme.com/images/534.jpg,https://albiraq.kasme.com/images/534.jpg
32621,https://albiraq.kasme.com/images/535.jpg,https://albiraq.kasme.com/images/535.jpg,https://albiraq.kasme.com/images/535.jpg,https://albiraq.kasme.com/images/535.jpg
33014,https://albiraq.kasme.com/images/536.jpg,https://albiraq.kasme.com/images/536.jpg,https://albiraq.kasme.com/images/536.jpg,https://albiraq.kasme.com/images/536.jpg
23729,https://albiraq.kasme.com/images/537.jpg,https://albiraq.kasme.com/images/537.jpg,https://albiraq.kasme.com/images/537.jpg,https://albiraq.kasme.com/images/537.jpg
27918,https://albiraq.kasme.com/images/538.jpg,https://albiraq.kasme.com/images/538.jpg,https://albiraq.kasme.com/images/538.jpg,https://albiraq.kasme.com/images/538.jpg
13832,https://albiraq.kasme.com/images/539.jpg,https://albiraq.kasme.com/images/539.jpg,https://albiraq.kasme.com/images/539.jpg,https://albiraq.kasme.com/images/539.jpg
31949,https://albiraq.kasme.com/images/540.jpeg,https://albiraq.kasme.com/images/540.jpeg,https://albiraq.kasme.com/images/540.jpeg,https://albiraq.kasme.com/images/540.jpeg
24402,https://albiraq.kasme.com/images/541.jpeg,https://albiraq.kasme.com/images/541.jpeg,https://albiraq.kasme.com/images/541.jpeg,https://albiraq.kasme.com/images/541.jpeg
13715,https://albiraq.kasme.com/images/542.Jpeg,https://albiraq.kasme.com/images/542.Jpeg,https://albiraq.kasme.com/images/542.Jpeg,https://albiraq.kasme.com/images/542.Jpeg
27639,https://albiraq.kasme.com/images/543.jpeg,https://albiraq.kasme.com/images/543.jpeg,https://albiraq.kasme.com/images/543.jpeg,https://albiraq.kasme.com/images/543.jpeg
27551,https://albiraq.kasme.com/images/544.jpeg,https://albiraq.kasme.com/images/544.jpeg,https://albiraq.kasme.com/images/544.jpeg,https://albiraq.kasme.com/images/544.jpeg
27080,https://albiraq.kasme.com/images/545.jpeg,https://albiraq.kasme.com/images/545.jpeg,https://albiraq.kasme.com/images/545.jpeg,https://albiraq.kasme.com/images/545.jpeg
26794,https://albiraq.kasme.com/images/546.jpeg,https://albiraq.kasme.com/images/546.jpeg,https://albiraq.kasme.com/images/546.jpeg,https://albiraq.kasme.com/images/546.jpeg
12802,https://albiraq.kasme.com/images/547.jpeg,https://albiraq.kasme.com/images/547.jpeg,https://albiraq.kasme.com/images/547.jpeg,https://albiraq.kasme.com/images/547.jpeg
32163,https://albiraq.kasme.com/images/548.jpeg,https://albiraq.kasme.com/images/548.jpeg,https://albiraq.kasme.com/images/548.jpeg,https://albiraq.kasme.com/images/548.jpeg
32303,https://albiraq.kasme.com/images/549.jpg,https://albiraq.kasme.com/images/549.jpg,https://albiraq.kasme.com/images/549.jpg,https://albiraq.kasme.com/images/549.jpg
32452,https://albiraq.kasme.com/images/550.jpg,https://albiraq.kasme.com/images/550.jpg,https://albiraq.kasme.com/images/550.jpg,https://albiraq.kasme.com/images/550.jpg
27593,https://albiraq.kasme.com/images/552.jpg,https://albiraq.kasme.com/images/552.jpg,https://albiraq.kasme.com/images/552.jpg,https://albiraq.kasme.com/images/552.jpg
12198,https://albiraq.kasme.com/images/553.jpg,https://albiraq.kasme.com/images/553.jpg,https://albiraq.kasme.com/images/553.jpg,https://albiraq.kasme.com/images/553.jpg
12976,https://albiraq.kasme.com/images/554.jpg,https://albiraq.kasme.com/images/554.jpg,https://albiraq.kasme.com/images/554.jpg,https://albiraq.kasme.com/images/554.jpg
26082,https://albiraq.kasme.com/images/555.jpg,https://albiraq.kasme.com/images/555.jpg,https://albiraq.kasme.com/images/555.jpg,https://albiraq.kasme.com/images/555.jpg
31948,https://albiraq.kasme.com/images/556.jpg,https://albiraq.kasme.com/images/556.jpg,https://albiraq.kasme.com/images/556.jpg,https://albiraq.kasme.com/images/556.jpg
19302,https://albiraq.kasme.com/images/557.jpg,https://albiraq.kasme.com/images/557.jpg,https://albiraq.kasme.com/images/557.jpg,https://albiraq.kasme.com/images/557.jpg
14945,https://albiraq.kasme.com/images/558.jpg,https://albiraq.kasme.com/images/558.jpg,https://albiraq.kasme.com/images/558.jpg,https://albiraq.kasme.com/images/558.jpg
27637,https://albiraq.kasme.com/images/560.jpg,https://albiraq.kasme.com/images/560.jpg,https://albiraq.kasme.com/images/560.jpg,https://albiraq.kasme.com/images/560.jpg
12801,https://albiraq.kasme.com/images/560.jpg,https://albiraq.kasme.com/images/560.jpg,https://albiraq.kasme.com/images/560.jpg,https://albiraq.kasme.com/images/560.jpg
10583,https://albiraq.kasme.com/images/561.jpg,https://albiraq.kasme.com/images/561.jpg,https://albiraq.kasme.com/images/561.jpg,https://albiraq.kasme.com/images/561.jpg
27674,https://albiraq.kasme.com/images/562.jpg,https://albiraq.kasme.com/images/562.jpg,https://albiraq.kasme.com/images/562.jpg,https://albiraq.kasme.com/images/562.jpg
29261,https://albiraq.kasme.com/images/563.jpg,https://albiraq.kasme.com/images/563.jpg,https://albiraq.kasme.com/images/563.jpg,https://albiraq.kasme.com/images/563.jpg
20377,https://albiraq.kasme.com/images/564.jpg,https://albiraq.kasme.com/images/564.jpg,https://albiraq.kasme.com/images/564.jpg,https://albiraq.kasme.com/images/564.jpg
22269,https://albiraq.kasme.com/images/565.jpg,https://albiraq.kasme.com/images/565.jpg,https://albiraq.kasme.com/images/565.jpg,https://albiraq.kasme.com/images/565.jpg
20303,https://albiraq.kasme.com/images/566.jpg,https://albiraq.kasme.com/images/566.jpg,https://albiraq.kasme.com/images/566.jpg,https://albiraq.kasme.com/images/566.jpg
29270,https://albiraq.kasme.com/images/567.jpg,https://albiraq.kasme.com/images/567.jpg,https://albiraq.kasme.com/images/567.jpg,https://albiraq.kasme.com/images/567.jpg
27666,https://albiraq.kasme.com/images/568.jpg,https://albiraq.kasme.com/images/568.jpg,https://albiraq.kasme.com/images/568.jpg,https://albiraq.kasme.com/images/568.jpg
32162,https://albiraq.kasme.com/images/570.jpg,https://albiraq.kasme.com/images/570.jpg,https://albiraq.kasme.com/images/570.jpg,https://albiraq.kasme.com/images/570.jpg
27655,https://albiraq.kasme.com/images/571.jpg,https://albiraq.kasme.com/images/571.jpg,https://albiraq.kasme.com/images/571.jpg,https://albiraq.kasme.com/images/571.jpg
15831,https://albiraq.kasme.com/images/572.jpg,https://albiraq.kasme.com/images/572.jpg,https://albiraq.kasme.com/images/572.jpg,https://albiraq.kasme.com/images/572.jpg
14022,https://albiraq.kasme.com/images/573.jpg,https://albiraq.kasme.com/images/573.jpg,https://albiraq.kasme.com/images/573.jpg,https://albiraq.kasme.com/images/573.jpg
16480,https://albiraq.kasme.com/images/574.jpg,https://albiraq.kasme.com/images/574.jpg,https://albiraq.kasme.com/images/574.jpg,https://albiraq.kasme.com/images/574.jpg
16505,https://albiraq.kasme.com/images/575.jpg,https://albiraq.kasme.com/images/575.jpg,https://albiraq.kasme.com/images/575.jpg,https://albiraq.kasme.com/images/575.jpg
16490,https://albiraq.kasme.com/images/576.jpg,https://albiraq.kasme.com/images/576.jpg,https://albiraq.kasme.com/images/576.jpg,https://albiraq.kasme.com/images/576.jpg
16483,https://albiraq.kasme.com/images/578.jpg,https://albiraq.kasme.com/images/578.jpg,https://albiraq.kasme.com/images/578.jpg,https://albiraq.kasme.com/images/578.jpg
16479,https://albiraq.kasme.com/images/579.jpg,https://albiraq.kasme.com/images/579.jpg,https://albiraq.kasme.com/images/579.jpg,https://albiraq.kasme.com/images/579.jpg
16509,https://albiraq.kasme.com/images/580.jpg,https://albiraq.kasme.com/images/580.jpg,https://albiraq.kasme.com/images/580.jpg,https://albiraq.kasme.com/images/580.jpg
16549,https://albiraq.kasme.com/images/581.jpg,https://albiraq.kasme.com/images/581.jpg,https://albiraq.kasme.com/images/581.jpg,https://albiraq.kasme.com/images/581.jpg
33051,https://albiraq.kasme.com/images/582.jpg,https://albiraq.kasme.com/images/582.jpg,https://albiraq.kasme.com/images/582.jpg,https://albiraq.kasme.com/images/582.jpg
25789,https://albiraq.kasme.com/images/700.jpg ,https://albiraq.kasme.com/images/700.jpg ,https://albiraq.kasme.com/images/700.jpg ,https://albiraq.kasme.com/images/700.jpg 
28079,https://albiraq.kasme.com/images/701.jpg ,https://albiraq.kasme.com/images/701.jpg ,https://albiraq.kasme.com/images/701.jpg ,https://albiraq.kasme.com/images/701.jpg 
10863,https://albiraq.kasme.com/images/702.jpg ,https://albiraq.kasme.com/images/702.jpg ,https://albiraq.kasme.com/images/702.jpg ,https://albiraq.kasme.com/images/702.jpg 
27192,https://albiraq.kasme.com/images/703.jpg ,https://albiraq.kasme.com/images/703.jpg ,https://albiraq.kasme.com/images/703.jpg ,https://albiraq.kasme.com/images/703.jpg 
19299,https://albiraq.kasme.com/images/704.jpg ,https://albiraq.kasme.com/images/704.jpg ,https://albiraq.kasme.com/images/704.jpg ,https://albiraq.kasme.com/images/704.jpg 
31966,https://albiraq.kasme.com/images/705.jpg ,https://albiraq.kasme.com/images/705.jpg ,https://albiraq.kasme.com/images/705.jpg ,https://albiraq.kasme.com/images/705.jpg 
24632,https://albiraq.kasme.com/images/706.jpg ,https://albiraq.kasme.com/images/706.jpg ,https://albiraq.kasme.com/images/706.jpg ,https://albiraq.kasme.com/images/706.jpg 
29548,https://albiraq.kasme.com/images/707.jpg ,https://albiraq.kasme.com/images/707.jpg ,https://albiraq.kasme.com/images/707.jpg ,https://albiraq.kasme.com/images/707.jpg 
10857,https://albiraq.kasme.com/images/708.jpg,https://albiraq.kasme.com/images/708.jpg,https://albiraq.kasme.com/images/708.jpg,https://albiraq.kasme.com/images/708.jpg
22259,https://albiraq.kasme.com/images/709.jpg ,https://albiraq.kasme.com/images/709.jpg ,https://albiraq.kasme.com/images/709.jpg ,https://albiraq.kasme.com/images/709.jpg 
12787,https://albiraq.kasme.com/images/710.jpg ,https://albiraq.kasme.com/images/710.jpg ,https://albiraq.kasme.com/images/710.jpg ,https://albiraq.kasme.com/images/710.jpg 
26243,https://albiraq.kasme.com/images/711.jpg,https://albiraq.kasme.com/images/711.jpg,https://albiraq.kasme.com/images/711.jpg,https://albiraq.kasme.com/images/711.jpg
10868,https://albiraq.kasme.com/images/712.jpg ,https://albiraq.kasme.com/images/712.jpg ,https://albiraq.kasme.com/images/712.jpg ,https://albiraq.kasme.com/images/712.jpg 
12784,https://albiraq.kasme.com/images/713.jpg ,https://albiraq.kasme.com/images/713.jpg ,https://albiraq.kasme.com/images/713.jpg ,https://albiraq.kasme.com/images/713.jpg 
10865,https://albiraq.kasme.com/images/714.jpg ,https://albiraq.kasme.com/images/714.jpg ,https://albiraq.kasme.com/images/714.jpg ,https://albiraq.kasme.com/images/714.jpg 
18385,https://albiraq.kasme.com/images/551.jpg,https://albiraq.kasme.com/images/551.jpg,https://albiraq.kasme.com/images/551.jpg,https://albiraq.kasme.com/images/551.jpg
24539,https://albiraq.kasme.com/images/745.jpg ,https://albiraq.kasme.com/images/745.jpg ,https://albiraq.kasme.com/images/745.jpg ,https://albiraq.kasme.com/images/745.jpg 
28813,https://albiraq.kasme.com/images/743.jpg ,https://albiraq.kasme.com/images/743.jpg ,https://albiraq.kasme.com/images/743.jpg ,https://albiraq.kasme.com/images/743.jpg 
31597,https://albiraq.kasme.com/images/744.jpg ,https://albiraq.kasme.com/images/744.jpg ,https://albiraq.kasme.com/images/744.jpg ,https://albiraq.kasme.com/images/744.jpg 
15292,https://albiraq.kasme.com/images/715.jpg ,https://albiraq.kasme.com/images/715.jpg ,https://albiraq.kasme.com/images/715.jpg ,https://albiraq.kasme.com/images/715.jpg 
17380,https://albiraq.kasme.com/images/716.jpg ,https://albiraq.kasme.com/images/716.jpg ,https://albiraq.kasme.com/images/716.jpg ,https://albiraq.kasme.com/images/716.jpg 
15700,https://albiraq.kasme.com/images/717.jpg ,https://albiraq.kasme.com/images/717.jpg ,https://albiraq.kasme.com/images/717.jpg ,https://albiraq.kasme.com/images/717.jpg 
16259,https://albiraq.kasme.com/images/718.jpg ,https://albiraq.kasme.com/images/718.jpg ,https://albiraq.kasme.com/images/718.jpg ,https://albiraq.kasme.com/images/718.jpg 
29701,https://albiraq.kasme.com/images/719.jpg ,https://albiraq.kasme.com/images/719.jpg ,https://albiraq.kasme.com/images/719.jpg ,https://albiraq.kasme.com/images/719.jpg 
27686,https://albiraq.kasme.com/images/720.jpg ,https://albiraq.kasme.com/images/720.jpg ,https://albiraq.kasme.com/images/720.jpg ,https://albiraq.kasme.com/images/720.jpg 
16248,https://albiraq.kasme.com/images/721.jpg ,https://albiraq.kasme.com/images/721.jpg ,https://albiraq.kasme.com/images/721.jpg ,https://albiraq.kasme.com/images/721.jpg 
